<?xml version="1.0" encoding="UTF-8"?>
<svg width="320px" height="74px" viewBox="0 0 320 74" version="1.1" xmlns="http://www.w3.org/2000/svg" xmlns:xlink="http://www.w3.org/1999/xlink">
    <path d="M143.606,31.982 L150.609,31.982 L150.609,42.651 C151.878,41.712 153.851,40.442 156.954,40.442 C162.641,40.442 164.568,43.92 164.568,48.573 L164.568,63.942 L157.423,63.942 L157.423,49.654 C157.423,47.164 156.577,46.034 154.228,46.034 C152.912,46.034 151.689,46.693 150.797,47.351 L150.797,63.942 L143.606,63.942 L143.606,31.982 Z M70.568,31.982 L77.759,31.982 L77.759,42.416 C78.699,41.523 80.579,40.442 83.211,40.442 C89.885,40.442 92.516,45.659 92.516,52.052 C92.516,58.585 88.522,64.318 80.156,64.318 C76.772,64.318 73.106,63.66 70.568,62.72 L70.568,31.982 Z M77.759,58.538 C78.464,58.725 79.451,58.866 80.25,58.866 C83.446,58.866 84.95,56.469 84.95,52.334 C84.95,48.479 83.821,45.988 80.579,45.988 C79.404,45.988 78.369,46.458 77.759,46.975 L77.759,58.538 Z M0,34.661 L7.332,34.661 L7.332,58.067 L17.859,58.067 L17.859,63.942 L0,63.942 L0,34.661 Z M121.422,52.663 C121.422,45.754 125.417,40.442 133.266,40.442 C136.039,40.442 137.684,40.913 139.047,41.382 L139.047,46.881 C137.684,46.317 136.133,45.847 133.97,45.847 C130.728,45.847 128.895,48.009 128.895,52.663 C128.895,56.705 130.822,58.819 134.112,58.819 C136.509,58.819 137.919,58.443 139.422,57.598 L139.422,63.19 C138.013,63.801 136.039,64.318 133.454,64.318 C125.323,64.318 121.422,59.9 121.422,52.663 Z M44.624,48.338 C44.624,43.685 48.243,40.442 54.588,40.442 C56.091,40.442 57.502,40.631 58.63,40.818 L66.573,40.818 L66.573,45.236 L63.377,45.236 C64.035,45.941 64.598,47.164 64.598,48.808 C64.598,53.086 61.027,56.187 54.634,56.187 C53.742,56.187 52.896,56.141 52.096,55.999 C51.815,56.234 51.486,56.657 51.486,57.175 C51.486,57.879 51.956,58.256 53.412,58.302 L58.254,58.538 C62.813,58.772 66.197,60.464 66.197,65.212 C66.197,70.334 61.544,73.249 53.977,73.249 C47.115,73.249 43.59,70.804 43.59,67.279 C43.59,64.789 45.846,63.097 47.82,62.344 C46.409,61.733 45.423,60.464 45.423,58.679 C45.423,56.705 46.974,55.435 48.149,54.777 C45.893,53.367 44.624,51.253 44.624,48.338 Z M51.298,48.385 C51.298,50.359 52.332,52.004 54.634,52.004 C56.985,52.004 58.019,50.312 58.019,48.338 C58.019,46.411 56.985,44.626 54.634,44.626 C52.332,44.626 51.298,46.411 51.298,48.385 Z M49.888,66.339 C49.888,68.031 51.58,68.831 54.306,68.831 C57.783,68.831 59.241,67.796 59.241,66.104 C59.241,64.318 57.925,63.989 54.917,63.848 C53.46,63.801 52.379,63.708 51.908,63.66 C51.016,64.131 49.888,64.929 49.888,66.339 Z M19.351,52.38 C19.351,46.177 23.111,40.442 30.912,40.442 C38.668,40.442 42.381,45.659 42.381,52.38 C42.381,58.585 38.621,64.318 30.865,64.318 C23.111,64.318 19.351,59.102 19.351,52.38 Z M26.824,52.38 C26.824,56.563 27.952,59.007 30.912,59.007 C33.826,59.007 34.955,56.563 34.955,52.38 C34.955,48.244 33.826,45.707 30.865,45.707 C27.952,45.707 26.824,48.244 26.824,52.38 Z M110.236,40.818 L117.426,40.818 L117.426,63.942 L110.424,63.942 L110.424,62.109 C109.155,63.05 107.181,64.318 104.079,64.318 C98.391,64.318 96.418,60.84 96.418,56.187 L96.418,40.818 L103.609,40.818 L103.609,55.106 C103.609,57.598 104.502,58.725 106.805,58.725 C108.12,58.725 109.343,58.02 110.236,57.362 L110.236,40.818 Z" id="logo-original-andrea-a" fill="#050D1A"></path>
    <path d="M261.791,47.526 L265.606,47.526 L265.439,48.895 L265.439,62.622 L267.263,62.622 L267.263,63.942 L262.031,63.942 L262.031,62.622 L263.807,62.622 L263.807,48.846 L261.791,48.846 L261.791,47.526 Z M238.322,47.526 L238.322,48.846 L240.337,48.846 L240.337,62.622 L238.56,62.622 L238.56,63.942 L243.793,63.942 L243.793,62.622 L241.969,62.622 L241.969,54.318 C242.433,54.015 242.925,53.794 243.444,53.657 C243.965,53.522 244.417,53.455 244.801,53.455 C245.776,53.455 246.465,53.686 246.865,54.15 C247.265,54.614 247.465,55.335 247.465,56.311 L247.465,62.622 L245.641,62.622 L245.641,63.942 L250.873,63.942 L250.873,62.622 L249.096,62.622 L249.096,56.095 C249.096,54.799 248.805,53.802 248.221,53.106 C247.637,52.41 246.673,52.062 245.329,52.062 C244.641,52.062 244.005,52.182 243.421,52.423 C242.837,52.663 242.353,52.934 241.969,53.238 L241.969,48.895 L242.137,47.526 L238.322,47.526 Z M214.625,49.818 C213.793,50.515 213.377,51.486 213.377,52.734 C213.377,53.678 213.645,54.463 214.181,55.087 C214.716,55.71 215.608,56.247 216.857,56.694 C218.521,57.27 219.593,57.759 220.073,58.157 C220.553,58.558 220.793,59.174 220.793,60.007 C220.793,60.694 220.617,61.254 220.265,61.686 C219.913,62.117 219.469,62.41 218.933,62.562 C218.397,62.714 217.896,62.791 217.433,62.791 C216.49,62.791 215.593,62.701 214.745,62.526 L214.745,60.198 L213.257,60.198 L213.257,63.463 C213.785,63.686 214.445,63.854 215.238,63.966 C216.03,64.079 216.737,64.134 217.361,64.134 C218.129,64.134 218.837,64.026 219.485,63.81 C220.133,63.594 220.681,63.295 221.129,62.909 C221.577,62.526 221.921,62.07 222.161,61.542 C222.401,61.014 222.52,60.446 222.52,59.839 C222.52,59.038 222.373,58.37 222.077,57.834 C221.781,57.299 221.345,56.858 220.768,56.514 C220.192,56.17 219.37,55.807 218.297,55.422 C216.777,54.879 215.857,54.398 215.537,53.982 C215.217,53.566 215.057,53.079 215.057,52.518 C215.057,51.719 215.309,51.114 215.813,50.706 C216.317,50.299 217.137,50.094 218.272,50.094 C218.945,50.094 219.64,50.15 220.36,50.263 L220.36,52.518 L221.873,52.518 L221.873,49.302 C221.537,49.157 221.016,49.034 220.313,48.931 C219.608,48.826 218.905,48.774 218.201,48.774 C216.649,48.774 215.457,49.122 214.625,49.818 Z M312.667,52.423 C313.194,52.182 313.762,52.062 314.371,52.062 C315.955,52.062 317.155,52.574 317.971,53.598 C318.787,54.623 319.194,56.102 319.194,58.039 C319.194,58.662 319.116,59.314 318.955,59.994 C318.795,60.675 318.478,61.358 318.007,62.046 C317.535,62.734 316.923,63.254 316.171,63.606 C315.419,63.959 314.634,64.134 313.818,64.134 C313.467,64.134 313.062,64.09 312.607,64.003 C312.15,63.915 311.771,63.782 311.466,63.606 L311.466,67.062 L313.602,67.062 L313.602,68.382 L308.058,68.382 L308.058,67.062 L309.835,67.062 L309.835,53.574 L308.058,53.574 L308.058,52.254 L311.466,52.254 L311.466,53.215 C311.739,52.927 312.139,52.663 312.667,52.423 Z M312.427,62.634 C312.827,62.722 313.227,62.766 313.626,62.766 C314.875,62.766 315.827,62.346 316.482,61.506 C317.138,60.667 317.467,59.533 317.467,58.11 C317.467,55.007 316.299,53.455 313.963,53.455 C313.515,53.455 313.059,53.539 312.595,53.707 C312.131,53.874 311.754,54.079 311.466,54.318 L311.466,62.31 C311.707,62.438 312.026,62.547 312.427,62.634 Z M297.171,53.334 C296.788,52.838 296.343,52.503 295.839,52.325 C295.335,52.15 294.875,52.062 294.459,52.062 C294.091,52.062 293.686,52.106 293.247,52.194 C292.807,52.282 292.395,52.426 292.01,52.627 C291.627,52.826 291.298,53.03 291.027,53.238 L291.027,52.254 L287.643,52.254 L287.643,53.574 L289.419,53.574 L289.419,62.622 L287.643,62.622 L287.643,63.942 L292.73,63.942 L292.73,62.622 L291.051,62.622 L291.051,54.318 C291.387,54.095 291.807,53.894 292.311,53.719 C292.814,53.542 293.275,53.455 293.691,53.455 C295.387,53.455 296.234,54.295 296.234,55.974 L296.234,62.622 L294.579,62.622 L294.579,63.942 L299.523,63.942 L299.523,62.622 L297.867,62.622 L297.867,55.47 C297.867,55.07 297.803,54.663 297.675,54.247 C297.978,54.039 298.383,53.855 298.886,53.694 C299.39,53.534 299.867,53.455 300.315,53.455 C301.354,53.455 302.066,53.678 302.451,54.126 C302.835,54.574 303.026,55.223 303.026,56.07 L303.026,62.622 L301.395,62.622 L301.395,63.942 L306.435,63.942 L306.435,62.622 L304.659,62.622 L304.659,55.854 C304.659,53.326 303.394,52.062 300.867,52.062 C299.571,52.062 298.339,52.486 297.171,53.334 Z M278.083,52.254 C278.762,52.127 279.358,52.062 279.871,52.062 C281.247,52.062 282.274,52.325 282.955,52.854 C283.635,53.382 283.974,54.19 283.974,55.278 L283.974,61.639 C283.974,61.927 284.035,62.174 284.155,62.382 C284.275,62.591 284.575,62.694 285.055,62.694 C285.375,62.694 285.607,62.671 285.751,62.622 L285.751,63.942 C285.398,64.07 284.926,64.134 284.335,64.134 C283.327,64.134 282.727,63.71 282.535,62.862 L282.487,62.862 C282.199,63.198 281.751,63.494 281.143,63.751 C280.535,64.007 279.927,64.134 279.318,64.134 C278.215,64.134 277.339,63.838 276.69,63.247 C276.043,62.654 275.719,61.87 275.719,60.894 C275.719,59.758 276.175,58.886 277.086,58.278 C277.999,57.671 279.263,57.365 280.879,57.365 L282.342,57.415 L282.342,55.591 C282.342,54.822 282.119,54.27 281.671,53.935 C281.223,53.598 280.567,53.431 279.703,53.431 C278.967,53.431 278.343,53.503 277.831,53.646 L277.831,55.422 L276.343,55.422 L276.343,52.734 C276.823,52.542 277.402,52.382 278.083,52.254 Z M278.059,62.238 C278.451,62.591 279.007,62.766 279.726,62.766 C280.239,62.766 280.74,62.678 281.227,62.503 C281.715,62.326 282.087,62.102 282.342,61.83 L282.342,58.59 L281.095,58.543 C278.679,58.543 277.471,59.278 277.471,60.75 C277.471,61.39 277.667,61.886 278.059,62.238 Z M256.419,53.622 L256.419,52.254 L253.011,52.254 L253.011,53.574 L254.787,53.574 L254.787,62.622 L253.011,62.622 L253.011,63.942 L258.507,63.942 L258.507,62.622 L256.419,62.622 L256.419,54.774 C257.187,54.007 258.098,53.622 259.155,53.622 C259.507,53.622 259.907,53.678 260.355,53.791 L260.355,52.207 C259.97,52.11 259.635,52.062 259.347,52.062 C258.163,52.062 257.187,52.583 256.419,53.622 Z M268.319,52.254 L273.407,52.254 L273.407,53.574 L271.871,53.574 L267.623,57.654 L271.535,61.806 C272.047,62.366 272.583,62.646 273.143,62.646 L273.623,62.622 L273.623,63.942 C273.398,64.007 273.102,64.039 272.734,64.039 C272.351,64.039 271.963,63.962 271.571,63.81 C271.179,63.658 270.663,63.238 270.022,62.55 L265.703,57.869 L269.975,53.574 L268.319,53.574 L268.319,52.254 Z M231.564,52.254 L231.564,53.574 L233.365,53.574 L233.365,61.879 C232.917,62.182 232.44,62.402 231.936,62.539 C231.432,62.675 230.989,62.742 230.604,62.742 C229.645,62.742 228.977,62.514 228.601,62.058 C228.225,61.603 228.037,60.878 228.037,59.886 L228.037,53.622 L228.18,52.254 L224.605,52.254 L224.605,53.574 L226.406,53.574 L226.406,60.102 C226.406,61.062 226.541,61.83 226.813,62.406 C227.085,62.982 227.485,63.414 228.013,63.701 C228.541,63.99 229.228,64.134 230.077,64.134 C230.604,64.134 231.168,64.033 231.769,63.835 C232.369,63.635 232.932,63.326 233.461,62.909 L233.484,62.909 C233.677,63.727 234.309,64.134 235.38,64.134 C235.957,64.134 236.421,64.07 236.773,63.942 L236.773,62.622 C236.629,62.671 236.397,62.694 236.077,62.694 C235.693,62.694 235.417,62.614 235.249,62.455 C235.081,62.295 234.997,62.022 234.997,61.639 L234.997,53.622 L235.14,52.254 L231.564,52.254 Z" id="logo-original-andrea-c" fill="#727272"></path>
    <path d="M222.5908,0 L222.3848,0.022 C207.6168,22.976 169.5638,34.695 169.5638,34.695 C169.5638,34.695 187.2958,50.753 188.5328,62.581 C188.6948,64.098 188.5798,65.547 188.1238,66.884 L222.5908,0 Z" id="Shape" fill="#050D1A" fill-rule="nonzero"></path>
</svg>