<?xml version="1.0" encoding="UTF-8"?>
<svg width="11px" height="10px" viewBox="0 0 11 10" version="1.1" xmlns="http://www.w3.org/2000/svg" xmlns:xlink="http://www.w3.org/1999/xlink">
    <!-- Generator: Sketch 47.1 (45422) - http://www.bohemiancoding.com/sketch -->
    <title>Triangle</title>
    <desc>Created with Sketch.</desc>
    <defs></defs>
    <g id="Page-1" stroke="none" stroke-width="1" fill="none" fill-rule="evenodd">
        <g id="04-Beitrag" transform="translate(-808.000000, -2994.000000)" fill="#383F42">
            <g id="Group-10" transform="translate(0.000000, 2799.000000)">
                <g id="Group-9" transform="translate(402.000000, 176.000000)">
                    <g id="CTA" transform="translate(380.000000, 0.000000)">
                        <path d="M31.5008335,18.7141666 C34.6441669,26.0486113 36.2158337,29.7158337 36.2158337,29.7158337 C31.5008335,26.5725002 31.5008335,26.5725002 26.7858334,29.7158337 C26.7858334,29.7158337 28.3575001,26.0486113 31.5008335,18.7141666 Z" id="Triangle" transform="translate(31.500834, 24.215000) rotate(90.000000) translate(-31.500834, -24.215000) "></path>
                    </g>
                </g>
            </g>
        </g>
    </g>
</svg>